Tue Jan 06 2015 11:53:55 GMT-0500 (EST):
{ [Error: Server returned an unknown AccountType: undefined]
  stack: [Getter/Setter],
  __frame: 
   { name: 'getSubscriptions',
     line: 23,
     file: '/usr/local/azure/lib/util/profile/subscriptionUtils.js',
     prev: 
      { name: '__1',
        line: 42,
        file: '/usr/local/azure/lib/commands/login.js',
        prev: undefined,
        active: false,
        offset: 48,
        col: 31 },
     active: false,
     offset: 1,
     col: 20 },
  rawStack: [Getter] }
Error: Server returned an unknown AccountType: undefined
    at Logger.createError (/usr/local/azure/node_modules/adal-node/lib/log.js:196:13)
    at /usr/local/azure/node_modules/adal-node/lib/token-request.js:373:35
    at UserRealm._parseDiscoveryResponse (/usr/local/azure/node_modules/adal-node/lib/user-realm.js:234:3)
    at /usr/local/azure/node_modules/adal-node/lib/user-realm.js:263:12
    at Request._callback (/usr/local/azure/node_modules/adal-node/lib/util.js:116:5)
    at Request.self.callback (/usr/local/azure/node_modules/request/request.js:129:22)
    at Request.EventEmitter.emit (events.js:98:17)
    at Request.<anonymous> (/usr/local/azure/node_modules/request/request.js:873:14)
    at Request.EventEmitter.emit (events.js:117:20)
    at IncomingMessage.<anonymous> (/usr/local/azure/node_modules/request/request.js:824:12)
    at getSubscriptions (/usr/local/azure/lib/util/profile/subscriptionUtils.js:24:20)
    at __1 (/usr/local/azure/lib/commands/login.js:90:31)

